[{"name": "프로그래밍언어론", "code": "ENE414", "year": 2013},
 {"name": "웹어플리케이션개발", "code": "CSE326", "year": 2013},
 {"name": "소프트웨어공학", "code": "CSE406", "year": 2013},
 {"name": "시스템프로그래밍", "code": "CSE409", "year": 2013},
 {"name": "컴퓨터네트워크", "code": "CSE327", "year": 2013}
 ]
